{
    "id": 0,
    "code": "200003338720",
    "companyId": 841706,
    "date": "2022-02-03",
    "paymentDate": "2022-02-03",
    "status": "Temporary",
    "type": "SalesOrder",
    "batchCode": "",
    "currencyCode": "USD",
    "exchangeRateCurrencyCode": "USD",
    "customerUsageType": "",
    "entityUseCode": "",
    "customerVendorCode": "10331549",
    "customerCode": "10331549",
    "exemptNo": "",
    "reconciled": false,
    "locationCode": "",
    "reportingLocationCode": "",
    "purchaseOrderNo": "200003338720",
    "referenceCode": "reftest",
    "salespersonCode": "I",
    "totalAmount": 920.5,
    "totalExempt": 71.6,
    "totalDiscount": 0,
    "totalTax": 81.41,
    "totalTaxable": 848.9,
    "totalTaxCalculated": 81.41,
    "adjustmentReason": "NotAdjusted",
    "locked": false,
    "version": 1,
    "exchangeRateEffectiveDate": "2022-02-03",
    "exchangeRate": 1,
    "modifiedDate": "2022-02-18T16:10:07.0712682Z",
    "modifiedUserId": 345245,
    "taxDate": "2022-02-03",
    "lines": [
        {
            "id": 0,
            "transactionId": 0,
            "lineNumber": "1",
            "customerUsageType": "",
            "entityUseCode": "",
            "description": "CI AIRS6",
            "discountAmount": 0,
            "exemptAmount": 0,
            "exemptCertId": 0,
            "exemptNo": "",
            "isItemTaxable": true,
            "itemCode": "PH050414",
            "lineAmount": 54,
            "quantity": 1,
            "ref1": "20333872004",
            "ref2": "",
            "reportingDate": "2022-02-03",
            "tax": 5.27,
            "taxableAmount": 54,
            "taxCalculated": 5.27,
            "taxCode": "PH050414",
            "taxCodeId": 8345,
            "taxDate": "2022-02-03",
            "taxIncluded": false,
            "nonPassthroughDetails": [],
            "hsCode": "",
            "costInsuranceFreight": 0,
            "vatCode": "",
            "vatNumberTypeId": 0
        },
        {
            "id": 0,
            "transactionId": 0,
            "lineNumber": "2",
            "customerUsageType": "",
            "entityUseCode": "",
            "description": "CI AIRS6",
            "discountAmount": 0,
            "exemptAmount": 0,
            "exemptCertId": 0,
            "exemptNo": "",
            "isItemTaxable": true,
            "itemCode": "PH050414",
            "lineAmount": 54,
            "quantity": 1,
            "ref1": "20333872004",
            "ref2": "",
            "reportingDate": "2022-02-03",
            "tax": 5.27,
            "taxableAmount": 54,
            "taxCalculated": 5.27,
            "taxCode": "PH050414",
            "taxCodeId": 8345,
            "taxDate": "2022-02-03",
            "taxIncluded": false,
            "nonPassthroughDetails": [],
            "hsCode": "",
            "costInsuranceFreight": 0,
            "vatCode": "",
            "vatNumberTypeId": 0
        },
        {
            "id": 0,
            "transactionId": 0,
            "lineNumber": "3",
            "customerUsageType": "",
            "entityUseCode": "",
            "description": "CI NDN6VP4",
            "discountAmount": 0,
            "exemptAmount": 0,
            "exemptCertId": 0,
            "exemptNo": "",
            "isItemTaxable": true,
            "itemCode": "PH050414",
            "lineAmount": 84.8,
            "quantity": 2,
            "ref1": "20333872003",
            "ref2": "",
            "reportingDate": "2022-02-03",
            "tax": 8.27,
            "taxableAmount": 84.8,
            "taxCalculated": 8.27,
            "taxCode": "PH050414",
            "taxCodeId": 8345,
            "taxDate": "2022-02-03",
            "taxIncluded": false,
            "nonPassthroughDetails": [],
            "hsCode": "",
            "costInsuranceFreight": 0,
            "vatCode": "",
            "vatNumberTypeId": 0
        },
        {
            "id": 0,
            "transactionId": 0,
            "lineNumber": "4",
            "customerUsageType": "",
            "entityUseCode": "",
            "description": "CI NDN6VP4",
            "discountAmount": 0,
            "exemptAmount": 0,
            "exemptCertId": 0,
            "exemptNo": "",
            "isItemTaxable": true,
            "itemCode": "PH050414",
            "lineAmount": 84.8,
            "quantity": 2,
            "ref1": "20333872003",
            "ref2": "",
            "reportingDate": "2022-02-03",
            "tax": 8.27,
            "taxableAmount": 84.8,
            "taxCalculated": 8.27,
            "taxCode": "PH050414",
            "taxCodeId": 8345,
            "taxDate": "2022-02-03",
            "taxIncluded": false,
            "nonPassthroughDetails": [],
            "hsCode": "",
            "costInsuranceFreight": 0,
            "vatCode": "",
            "vatNumberTypeId": 0
        },
        {
            "id": 0,
            "transactionId": 0,
            "lineNumber": "5",
            "customerUsageType": "",
            "entityUseCode": "",
            "description": "CI NDN6",
            "discountAmount": 0,
            "exemptAmount": 0,
            "exemptCertId": 0,
            "exemptNo": "",
            "isItemTaxable": true,
            "itemCode": "PH050414",
            "lineAmount": 44,
            "quantity": 1,
            "ref1": "20333872002",
            "ref2": "",
            "reportingDate": "2022-02-03",
            "tax": 4.29,
            "taxableAmount": 44,
            "taxCalculated": 4.29,
            "taxCode": "PH050414",
            "taxCodeId": 8345,
            "taxDate": "2022-02-03",
            "taxIncluded": false,
            "nonPassthroughDetails": [],
            "hsCode": "",
            "costInsuranceFreight": 0,
            "vatCode": "",
            "vatNumberTypeId": 0
        },
        {
            "id": 0,
            "transactionId": 0,
            "lineNumber": "6",
            "customerUsageType": "",
            "entityUseCode": "",
            "description": "CI EM",
            "discountAmount": 0,
            "exemptAmount": 0,
            "exemptCertId": 0,
            "exemptNo": "",
            "isItemTaxable": true,
            "itemCode": "PH050414",
            "lineAmount": 35.7,
            "quantity": 1,
            "ref1": "20333872008",
            "ref2": "",
            "reportingDate": "2022-02-03",
            "tax": 3.3,
            "taxableAmount": 35.7,
            "taxCalculated": 3.3,
            "taxCode": "PH050414",
            "taxCodeId": 8345,
            "taxDate": "2022-02-03",
            "taxIncluded": false,
            "nonPassthroughDetails": [],
            "hsCode": "",
            "costInsuranceFreight": 0,
            "vatCode": "",
            "vatNumberTypeId": 0
        },
        {
            "id": 0,
            "transactionId": 0,
            "lineNumber": "7",
            "customerUsageType": "",
            "entityUseCode": "",
            "description": "CI EM",
            "discountAmount": 0,
            "exemptAmount": 0,
            "exemptCertId": 0,
            "exemptNo": "",
            "isItemTaxable": true,
            "itemCode": "PH050414",
            "lineAmount": 35.7,
            "quantity": 1,
            "ref1": "20333872008",
            "ref2": "",
            "reportingDate": "2022-02-03",
            "tax": 3.3,
            "taxableAmount": 35.7,
            "taxCalculated": 3.3,
            "taxCode": "PH050414",
            "taxCodeId": 8345,
            "taxDate": "2022-02-03",
            "taxIncluded": false,
            "nonPassthroughDetails": [],
            "hsCode": "",
            "costInsuranceFreight": 0,
            "vatCode": "",
            "vatNumberTypeId": 0
        },
        {
            "id": 0,
            "transactionId": 0,
            "lineNumber": "8",
            "customerUsageType": "",
            "entityUseCode": "",
            "description": "CI AIRML6",
            "discountAmount": 0,
            "exemptAmount": 0,
            "exemptCertId": 0,
            "exemptNo": "",
            "isItemTaxable": true,
            "itemCode": "PH050414",
            "lineAmount": 46.8,
            "quantity": 1,
            "ref1": "20333872001",
            "ref2": "",
            "reportingDate": "2022-02-03",
            "tax": 4.57,
            "taxableAmount": 46.8,
            "taxCalculated": 4.57,
            "taxCode": "PH050414",
            "taxCodeId": 8345,
            "taxDate": "2022-02-03",
            "taxIncluded": false,
            "nonPassthroughDetails": [],
            "hsCode": "",
            "costInsuranceFreight": 0,
            "vatCode": "",
            "vatNumberTypeId": 0
        },
        {
            "id": 0,
            "transactionId": 0,
            "lineNumber": "9",
            "customerUsageType": "",
            "entityUseCode": "",
            "description": "CI AIRU6",
            "discountAmount": 0,
            "exemptAmount": 0,
            "exemptCertId": 0,
            "exemptNo": "",
            "isItemTaxable": true,
            "itemCode": "PH050414",
            "lineAmount": 26.1,
            "quantity": 1,
            "ref1": "20333872001",
            "ref2": "",
            "reportingDate": "2022-02-03",
            "tax": 2.55,
            "taxableAmount": 26.1,
            "taxCalculated": 2.55,
            "taxCode": "PH050414",
            "taxCodeId": 8345,
            "taxDate": "2022-02-03",
            "taxIncluded": false,
            "nonPassthroughDetails": [],
            "hsCode": "",
            "costInsuranceFreight": 0,
            "vatCode": "",
            "vatNumberTypeId": 0
        },
        {
            "id": 0,
            "transactionId": 0,
            "lineNumber": "10",
            "customerUsageType": "",
            "entityUseCode": "",
            "description": "CI DSH90",
            "discountAmount": 0,
            "exemptAmount": 0,
            "exemptCertId": 0,
            "exemptNo": "",
            "isItemTaxable": true,
            "itemCode": "PH050414",
            "lineAmount": 65,
            "quantity": 1,
            "ref1": "20333872007",
            "ref2": "",
            "reportingDate": "2022-02-03",
            "tax": 6.01,
            "taxableAmount": 65,
            "taxCalculated": 6.01,
            "taxCode": "PH050414",
            "taxCodeId": 8345,
            "taxDate": "2022-02-03",
            "taxIncluded": false,
            "nonPassthroughDetails": [],
            "hsCode": "",
            "costInsuranceFreight": 0,
            "vatCode": "",
            "vatNumberTypeId": 0
        },
        {
            "id": 0,
            "transactionId": 0,
            "lineNumber": "11",
            "customerUsageType": "",
            "entityUseCode": "",
            "description": "CI DSH90",
            "discountAmount": 0,
            "exemptAmount": 0,
            "exemptCertId": 0,
            "exemptNo": "",
            "isItemTaxable": true,
            "itemCode": "PH050414",
            "lineAmount": 65,
            "quantity": 1,
            "ref1": "20333872007",
            "ref2": "",
            "reportingDate": "2022-02-03",
            "tax": 6.01,
            "taxableAmount": 65,
            "taxCalculated": 6.01,
            "taxCode": "PH050414",
            "taxCodeId": 8345,
            "taxDate": "2022-02-03",
            "taxIncluded": false,
            "nonPassthroughDetails": [],
            "hsCode": "",
            "costInsuranceFreight": 0,
            "vatCode": "",
            "vatNumberTypeId": 0
        },
        {
            "id": 0,
            "transactionId": 0,
            "lineNumber": "12",
            "customerUsageType": "",
            "entityUseCode": "",
            "description": "CI EM",
            "discountAmount": 0,
            "exemptAmount": 0,
            "exemptCertId": 0,
            "exemptNo": "",
            "isItemTaxable": true,
            "itemCode": "PH050414",
            "lineAmount": 35.7,
            "quantity": 1,
            "ref1": "20333872009",
            "ref2": "",
            "reportingDate": "2022-02-03",
            "tax": 3.3,
            "taxableAmount": 35.7,
            "taxCalculated": 3.3,
            "taxCode": "PH050414",
            "taxCodeId": 8345,
            "taxDate": "2022-02-03",
            "taxIncluded": false,
            "nonPassthroughDetails": [],
            "hsCode": "",
            "costInsuranceFreight": 0,
            "vatCode": "",
            "vatNumberTypeId": 0
        },
        {
            "id": 0,
            "transactionId": 0,
            "lineNumber": "13",
            "customerUsageType": "",
            "entityUseCode": "",
            "description": "CI EM",
            "discountAmount": 0,
            "exemptAmount": 0,
            "exemptCertId": 0,
            "exemptNo": "",
            "isItemTaxable": true,
            "itemCode": "PH050414",
            "lineAmount": 35.7,
            "quantity": 1,
            "ref1": "20333872009",
            "ref2": "",
            "reportingDate": "2022-02-03",
            "tax": 3.3,
            "taxableAmount": 35.7,
            "taxCalculated": 3.3,
            "taxCode": "PH050414",
            "taxCodeId": 8345,
            "taxDate": "2022-02-03",
            "taxIncluded": false,
            "nonPassthroughDetails": [],
            "hsCode": "",
            "costInsuranceFreight": 0,
            "vatCode": "",
            "vatNumberTypeId": 0
        },
        {
            "id": 0,
            "transactionId": 0,
            "lineNumber": "14",
            "customerUsageType": "",
            "entityUseCode": "",
            "description": "CI AIRML6",
            "discountAmount": 0,
            "exemptAmount": 0,
            "exemptCertId": 0,
            "exemptNo": "",
            "isItemTaxable": true,
            "itemCode": "PH050414",
            "lineAmount": 46.8,
            "quantity": 1,
            "ref1": "20333872006",
            "ref2": "",
            "reportingDate": "2022-02-03",
            "tax": 4.56,
            "taxableAmount": 46.8,
            "taxCalculated": 4.56,
            "taxCode": "PH050414",
            "taxCodeId": 8345,
            "taxDate": "2022-02-03",
            "taxIncluded": false,
            "nonPassthroughDetails": [],
            "hsCode": "",
            "costInsuranceFreight": 0,
            "vatCode": "",
            "vatNumberTypeId": 0
        },
        {
            "id": 0,
            "transactionId": 0,
            "lineNumber": "15",
            "customerUsageType": "",
            "entityUseCode": "",
            "description": "CI AIRML6",
            "discountAmount": 0,
            "exemptAmount": 0,
            "exemptCertId": 0,
            "exemptNo": "",
            "isItemTaxable": true,
            "itemCode": "PH050414",
            "lineAmount": 46.8,
            "quantity": 1,
            "ref1": "20333872006",
            "ref2": "",
            "reportingDate": "2022-02-03",
            "tax": 4.56,
            "taxableAmount": 46.8,
            "taxCalculated": 4.56,
            "taxCode": "PH050414",
            "taxCodeId": 8345,
            "taxDate": "2022-02-03",
            "taxIncluded": false,
            "nonPassthroughDetails": [],
            "hsCode": "",
            "costInsuranceFreight": 0,
            "vatCode": "",
            "vatNumberTypeId": 0
        },
        {
            "id": 0,
            "transactionId": 0,
            "lineNumber": "16",
            "customerUsageType": "",
            "entityUseCode": "",
            "description": "CI NDN6",
            "discountAmount": 0,
            "exemptAmount": 0,
            "exemptCertId": 0,
            "exemptNo": "",
            "isItemTaxable": true,
            "itemCode": "PH050414",
            "lineAmount": 44,
            "quantity": 1,
            "ref1": "20333872005",
            "ref2": "",
            "reportingDate": "2022-02-03",
            "tax": 4.29,
            "taxableAmount": 44,
            "taxCalculated": 4.29,
            "taxCode": "PH050414",
            "taxCodeId": 8345,
            "taxDate": "2022-02-03",
            "taxIncluded": false,
            "nonPassthroughDetails": [],
            "hsCode": "",
            "costInsuranceFreight": 0,
            "vatCode": "",
            "vatNumberTypeId": 0
        },
        {
            "id": 0,
            "transactionId": 0,
            "lineNumber": "17",
            "customerUsageType": "",
            "entityUseCode": "",
            "description": "CI NDN6",
            "discountAmount": 0,
            "exemptAmount": 0,
            "exemptCertId": 0,
            "exemptNo": "",
            "isItemTaxable": true,
            "itemCode": "PH050414",
            "lineAmount": 44,
            "quantity": 1,
            "ref1": "20333872005",
            "ref2": "",
            "reportingDate": "2022-02-03",
            "tax": 4.29,
            "taxableAmount": 44,
            "taxCalculated": 4.29,
            "taxCode": "PH050414",
            "taxCodeId": 8345,
            "taxDate": "2022-02-03",
            "taxIncluded": false,
            "nonPassthroughDetails": [],
            "hsCode": "",
            "costInsuranceFreight": 0,
            "vatCode": "",
            "vatNumberTypeId": 0
        },
        {
            "id": 0,
            "transactionId": 0,
            "lineNumber": "18",
            "customerUsageType": "",
            "entityUseCode": "",
            "description": "Shipping and Handling",
            "discountAmount": 0,
            "exemptAmount": 8.95,
            "exemptCertId": 0,
            "exemptNo": "",
            "isItemTaxable": false,
            "itemCode": "FR",
            "lineAmount": 8.95,
            "quantity": 1,
            "ref1": "20333872005",
            "ref2": "",
            "reportingDate": "2022-02-03",
            "tax": 0,
            "taxableAmount": 0,
            "taxCalculated": 0,
            "taxCode": "FR020100",
            "taxCodeId": 8555,
            "taxDate": "2022-02-03",
            "taxIncluded": false,
            "nonPassthroughDetails": [],
            "hsCode": "",
            "costInsuranceFreight": 0,
            "vatCode": "",
            "vatNumberTypeId": 0
        },
        {
            "id": 0,
            "transactionId": 0,
            "lineNumber": "19",
            "customerUsageType": "",
            "entityUseCode": "",
            "description": "Shipping and Handling",
            "discountAmount": 0,
            "exemptAmount": 8.95,
            "exemptCertId": 0,
            "exemptNo": "",
            "isItemTaxable": false,
            "itemCode": "FR",
            "lineAmount": 8.95,
            "quantity": 1,
            "ref1": "20333872005",
            "ref2": "",
            "reportingDate": "2022-02-03",
            "tax": 0,
            "taxableAmount": 0,
            "taxCalculated": 0,
            "taxCode": "FR020100",
            "taxCodeId": 8555,
            "taxDate": "2022-02-03",
            "taxIncluded": false,
            "nonPassthroughDetails": [],
            "hsCode": "",
            "costInsuranceFreight": 0,
            "vatCode": "",
            "vatNumberTypeId": 0
        },
        {
            "id": 0,
            "transactionId": 0,
            "lineNumber": "20",
            "customerUsageType": "",
            "entityUseCode": "",
            "description": "Shipping and Handling",
            "discountAmount": 0,
            "exemptAmount": 8.95,
            "exemptCertId": 0,
            "exemptNo": "",
            "isItemTaxable": false,
            "itemCode": "FR",
            "lineAmount": 8.95,
            "quantity": 1,
            "ref1": "20333872005",
            "ref2": "",
            "reportingDate": "2022-02-03",
            "tax": 0,
            "taxableAmount": 0,
            "taxCalculated": 0,
            "taxCode": "FR020100",
            "taxCodeId": 8555,
            "taxDate": "2022-02-03",
            "taxIncluded": false,
            "nonPassthroughDetails": [],
            "hsCode": "",
            "costInsuranceFreight": 0,
            "vatCode": "",
            "vatNumberTypeId": 0
        },
        {
            "id": 0,
            "transactionId": 0,
            "lineNumber": "21",
            "customerUsageType": "",
            "entityUseCode": "",
            "description": "Shipping and Handling",
            "discountAmount": 0,
            "exemptAmount": 8.95,
            "exemptCertId": 0,
            "exemptNo": "",
            "isItemTaxable": false,
            "itemCode": "FR",
            "lineAmount": 8.95,
            "quantity": 1,
            "ref1": "20333872005",
            "ref2": "",
            "reportingDate": "2022-02-03",
            "tax": 0,
            "taxableAmount": 0,
            "taxCalculated": 0,
            "taxCode": "FR020100",
            "taxCodeId": 8555,
            "taxDate": "2022-02-03",
            "taxIncluded": false,
            "nonPassthroughDetails": [],
            "hsCode": "",
            "costInsuranceFreight": 0,
            "vatCode": "",
            "vatNumberTypeId": 0
        },
        {
            "id": 0,
            "transactionId": 0,
            "lineNumber": "22",
            "customerUsageType": "",
            "entityUseCode": "",
            "description": "Shipping and Handling",
            "discountAmount": 0,
            "exemptAmount": 8.95,
            "exemptCertId": 0,
            "exemptNo": "",
            "isItemTaxable": false,
            "itemCode": "FR",
            "lineAmount": 8.95,
            "quantity": 1,
            "ref1": "20333872005",
            "ref2": "",
            "reportingDate": "2022-02-03",
            "tax": 0,
            "taxableAmount": 0,
            "taxCalculated": 0,
            "taxCode": "FR020100",
            "taxCodeId": 8555,
            "taxDate": "2022-02-03",
            "taxIncluded": false,
            "nonPassthroughDetails": [],
            "hsCode": "",
            "costInsuranceFreight": 0,
            "vatCode": "",
            "vatNumberTypeId": 0
        },
        {
            "id": 0,
            "transactionId": 0,
            "lineNumber": "23",
            "customerUsageType": "",
            "entityUseCode": "",
            "description": "Shipping and Handling",
            "discountAmount": 0,
            "exemptAmount": 8.95,
            "exemptCertId": 0,
            "exemptNo": "",
            "isItemTaxable": false,
            "itemCode": "FR",
            "lineAmount": 8.95,
            "quantity": 1,
            "ref1": "20333872005",
            "ref2": "",
            "reportingDate": "2022-02-03",
            "tax": 0,
            "taxableAmount": 0,
            "taxCalculated": 0,
            "taxCode": "FR020100",
            "taxCodeId": 8555,
            "taxDate": "2022-02-03",
            "taxIncluded": false,
            "nonPassthroughDetails": [],
            "hsCode": "",
            "costInsuranceFreight": 0,
            "vatCode": "",
            "vatNumberTypeId": 0
        },
        {
            "id": 0,
            "transactionId": 0,
            "lineNumber": "24",
            "customerUsageType": "",
            "entityUseCode": "",
            "description": "Shipping and Handling",
            "discountAmount": 0,
            "exemptAmount": 8.95,
            "exemptCertId": 0,
            "exemptNo": "",
            "isItemTaxable": false,
            "itemCode": "FR",
            "lineAmount": 8.95,
            "quantity": 1,
            "ref1": "20333872005",
            "ref2": "",
            "reportingDate": "2022-02-03",
            "tax": 0,
            "taxableAmount": 0,
            "taxCalculated": 0,
            "taxCode": "FR020100",
            "taxCodeId": 8555,
            "taxDate": "2022-02-03",
            "taxIncluded": false,
            "nonPassthroughDetails": [],
            "hsCode": "",
            "costInsuranceFreight": 0,
            "vatCode": "",
            "vatNumberTypeId": 0
        },
        {
            "id": 0,
            "transactionId": 0,
            "lineNumber": "25",
            "customerUsageType": "",
            "entityUseCode": "",
            "description": "Shipping and Handling",
            "discountAmount": 0,
            "exemptAmount": 8.95,
            "exemptCertId": 0,
            "exemptNo": "",
            "isItemTaxable": false,
            "itemCode": "FR",
            "lineAmount": 8.95,
            "quantity": 1,
            "ref1": "20333872005",
            "ref2": "",
            "reportingDate": "2022-02-03",
            "tax": 0,
            "taxableAmount": 0,
            "taxCalculated": 0,
            "taxCode": "FR020100",
            "taxCodeId": 8555,
            "taxDate": "2022-02-03",
            "taxIncluded": false,
            "nonPassthroughDetails": [],
            "hsCode": "",
            "costInsuranceFreight": 0,
            "vatCode": "",
            "vatNumberTypeId": 0
        }
    ],
    "addresses": [
        {
            "id": 0,
            "transactionId": 0,
            "boundaryLevel": "Address",
            "line1": "154 Slaters Drive",
            "line2": "",
            "line3": "",
            "city": "Lebanon",
            "region": "TN",
            "postalCode": "37087",
            "country": "US",
            "taxRegionId": 4013806,
            "latitude": "36.246757",
            "longitude": "-86.44357"
        },
        {
            "id": 0,
            "transactionId": 0,
            "boundaryLevel": "Address",
            "line1": "5575 N Lynch Ave",
            "line2": "",
            "line3": "",
            "city": "Chicago",
            "region": "IL",
            "postalCode": "60630-1417",
            "country": "US",
            "taxRegionId": 4025922,
            "latitude": "41.982647",
            "longitude": "-87.758698"
        },
        {
            "id": 0,
            "transactionId": 0,
            "boundaryLevel": "Address",
            "line1": "1003 MAYFAIR DRIVE",
            "line2": "",
            "line3": "",
            "city": "LEBANON",
            "region": "TN",
            "postalCode": "37087",
            "country": "US",
            "taxRegionId": 4013806,
            "latitude": "36.223448",
            "longitude": "-86.283614"
        },
        {
            "id": 0,
            "transactionId": 0,
            "boundaryLevel": "Address",
            "line1": "2618 Weatherford St",
            "line2": "",
            "line3": "",
            "city": "La Vergne",
            "region": "TN",
            "postalCode": "37086",
            "country": "US",
            "taxRegionId": 4013805,
            "latitude": "36.027362",
            "longitude": "-86.571447"
        },
        {
            "id": 0,
            "transactionId": 0,
            "boundaryLevel": "Address",
            "line1": "306 Wessex Ct",
            "line2": "",
            "line3": "",
            "city": "Nashville",
            "region": "TN",
            "postalCode": "37211",
            "country": "US",
            "taxRegionId": 4013097,
            "latitude": "36.053545",
            "longitude": "-86.708439"
        },
        {
            "id": 0,
            "transactionId": 0,
            "boundaryLevel": "Address",
            "line1": "6221 Belle Rive Drive",
            "line2": "",
            "line3": "",
            "city": "Brentwood",
            "region": "TN",
            "postalCode": "37027",
            "country": "US",
            "taxRegionId": 4013649,
            "latitude": "36.031378",
            "longitude": "-86.833219"
        },
        {
            "id": 0,
            "transactionId": 0,
            "boundaryLevel": "Address",
            "line1": "6109 Pennsylvania Ave",
            "line2": "",
            "line3": "",
            "city": "Nashville",
            "region": "TN",
            "postalCode": "37209",
            "country": "US",
            "taxRegionId": 4013097,
            "latitude": "36.165221",
            "longitude": "-86.861909"
        },
        {
            "id": 0,
            "transactionId": 0,
            "boundaryLevel": "Address",
            "line1": "5024 English Village Dr",
            "line2": "",
            "line3": "",
            "city": "Nashville",
            "region": "TN",
            "postalCode": "37211",
            "country": "US",
            "taxRegionId": 4013097,
            "latitude": "36.045114",
            "longitude": "-86.731741"
        },
        {
            "id": 0,
            "transactionId": 0,
            "boundaryLevel": "Address",
            "line1": "153 Honeysuckle Dr",
            "line2": "",
            "line3": "",
            "city": "White House",
            "region": "TN",
            "postalCode": "37188",
            "country": "US",
            "taxRegionId": 4013871,
            "latitude": "36.443283",
            "longitude": "-86.673202"
        },
        {
            "id": 0,
            "transactionId": 0,
            "boundaryLevel": "Address",
            "line1": "519 Tucker Trace",
            "line2": "",
            "line3": "",
            "city": "Lebanon",
            "region": "TN",
            "postalCode": "37087",
            "country": "US",
            "taxRegionId": 4013806,
            "latitude": "36.231498",
            "longitude": "-86.309204"
        }
    ],
    "summary": [
        {
            "country": "US",
            "region": "IL",
            "jurisType": "State",
            "jurisCode": "17",
            "jurisName": "ILLINOIS",
            "taxAuthorityType": 45,
            "stateAssignedNo": "016-0001-1 CHICAGO",
            "taxType": "Sales",
            "taxSubType": "S",
            "taxName": "IL STATE TAX",
            "rateType": "General",
            "taxable": 0,
            "rate": 0.0625,
            "tax": 0,
            "taxCalculated": 0,
            "nonTaxable": 71.6,
            "exemption": 0
        },
        {
            "country": "US",
            "region": "TN",
            "jurisType": "State",
            "jurisCode": "47",
            "jurisName": "TENNESSEE",
            "taxAuthorityType": 45,
            "stateAssignedNo": "",
            "taxType": "Sales",
            "taxSubType": "S",
            "taxName": "TN STATE TAX",
            "rateType": "General",
            "taxable": 848.9,
            "rate": 0.07,
            "tax": 59.45,
            "taxCalculated": 59.45,
            "nonTaxable": 0,
            "exemption": 0
        },
        {
            "country": "US",
            "region": "IL",
            "jurisType": "County",
            "jurisCode": "031",
            "jurisName": "COOK",
            "taxAuthorityType": 45,
            "stateAssignedNo": "016-0001-1 CHICAGO",
            "taxType": "Sales",
            "taxSubType": "S",
            "taxName": "IL COUNTY TAX",
            "rateType": "General",
            "taxable": 0,
            "rate": 0.0175,
            "tax": 0,
            "taxCalculated": 0,
            "nonTaxable": 71.6,
            "exemption": 0
        },
        {
            "country": "US",
            "region": "TN",
            "jurisType": "County",
            "jurisCode": "037",
            "jurisName": "DAVIDSON",
            "taxAuthorityType": 45,
            "stateAssignedNo": "1901",
            "taxType": "Sales",
            "taxSubType": "S",
            "taxName": "TN COUNTY TAX",
            "rateType": "General",
            "taxable": 272.8,
            "rate": 0.0225,
            "tax": 6.12,
            "taxCalculated": 6.12,
            "nonTaxable": 0,
            "exemption": 0
        },
        {
            "country": "US",
            "region": "TN",
            "jurisType": "County",
            "jurisCode": "149",
            "jurisName": "RUTHERFORD",
            "taxAuthorityType": 45,
            "stateAssignedNo": "7504",
            "taxType": "Sales",
            "taxSubType": "S",
            "taxName": "TN COUNTY TAX",
            "rateType": "General",
            "taxable": 44,
            "rate": 0.0275,
            "tax": 1.21,
            "taxCalculated": 1.21,
            "nonTaxable": 0,
            "exemption": 0
        },
        {
            "country": "US",
            "region": "TN",
            "jurisType": "County",
            "jurisCode": "165",
            "jurisName": "SUMNER",
            "taxAuthorityType": 45,
            "stateAssignedNo": "8306",
            "taxType": "Sales",
            "taxSubType": "S",
            "taxName": "TN COUNTY TAX",
            "rateType": "General",
            "taxable": 93.6,
            "rate": 0.0225,
            "tax": 2.1,
            "taxCalculated": 2.1,
            "nonTaxable": 0,
            "exemption": 0
        },
        {
            "country": "US",
            "region": "TN",
            "jurisType": "County",
            "jurisCode": "187",
            "jurisName": "WILLIAMSON",
            "taxAuthorityType": 45,
            "stateAssignedNo": "9403",
            "taxType": "Sales",
            "taxSubType": "S",
            "taxName": "TN COUNTY TAX",
            "rateType": "General",
            "taxable": 72.9,
            "rate": 0.0275,
            "tax": 2.01,
            "taxCalculated": 2.01,
            "nonTaxable": 0,
            "exemption": 0
        },
        {
            "country": "US",
            "region": "TN",
            "jurisType": "County",
            "jurisCode": "189",
            "jurisName": "WILSON",
            "taxAuthorityType": 45,
            "stateAssignedNo": "9501",
            "taxType": "Sales",
            "taxSubType": "S",
            "taxName": "TN COUNTY TAX",
            "rateType": "General",
            "taxable": 365.6,
            "rate": 0.0275,
            "tax": 10.06,
            "taxCalculated": 10.06,
            "nonTaxable": 0,
            "exemption": 0
        },
        {
            "country": "US",
            "region": "IL",
            "jurisType": "City",
            "jurisCode": "ARAV0",
            "jurisName": "CHICAGO",
            "taxAuthorityType": 45,
            "stateAssignedNo": "016-0001-1 CHICAGO",
            "taxType": "Sales",
            "taxSubType": "S",
            "taxName": "IL CITY TAX",
            "rateType": "General",
            "taxable": 0,
            "rate": 0.0125,
            "tax": 0,
            "taxCalculated": 0,
            "nonTaxable": 71.6,
            "exemption": 0
        },
        {
            "country": "US",
            "region": "TN",
            "jurisType": "City",
            "jurisCode": "08280",
            "jurisName": "BRENTWOOD (WILLIAMSON)",
            "taxAuthorityType": 45,
            "stateAssignedNo": "9403",
            "taxType": "Sales",
            "taxSubType": "S",
            "taxName": "TN CITY TAX",
            "rateType": "General",
            "taxable": 72.9,
            "rate": 0,
            "tax": 0,
            "taxCalculated": 0,
            "nonTaxable": 0,
            "exemption": 0
        },
        {
            "country": "US",
            "region": "TN",
            "jurisType": "City",
            "jurisCode": "41200",
            "jurisName": "LAVERGNE",
            "taxAuthorityType": 45,
            "stateAssignedNo": "7504",
            "taxType": "Sales",
            "taxSubType": "S",
            "taxName": "TN CITY TAX",
            "rateType": "General",
            "taxable": 44,
            "rate": 0,
            "tax": 0,
            "taxCalculated": 0,
            "nonTaxable": 0,
            "exemption": 0
        },
        {
            "country": "US",
            "region": "TN",
            "jurisType": "City",
            "jurisCode": "41520",
            "jurisName": "LEBANON",
            "taxAuthorityType": 45,
            "stateAssignedNo": "9501",
            "taxType": "Sales",
            "taxSubType": "S",
            "taxName": "TN CITY TAX",
            "rateType": "General",
            "taxable": 365.6,
            "rate": 0,
            "tax": 0,
            "taxCalculated": 0,
            "nonTaxable": 0,
            "exemption": 0
        },
        {
            "country": "US",
            "region": "TN",
            "jurisType": "City",
            "jurisCode": "52006",
            "jurisName": "NASHVILLE",
            "taxAuthorityType": 45,
            "stateAssignedNo": "1901",
            "taxType": "Sales",
            "taxSubType": "S",
            "taxName": "TN CITY TAX",
            "rateType": "General",
            "taxable": 272.8,
            "rate": 0,
            "tax": 0,
            "taxCalculated": 0,
            "nonTaxable": 0,
            "exemption": 0
        },
        {
            "country": "US",
            "region": "TN",
            "jurisType": "City",
            "jurisCode": "80200",
            "jurisName": "WHITE HOUSE",
            "taxAuthorityType": 45,
            "stateAssignedNo": "8306",
            "taxType": "Sales",
            "taxSubType": "S",
            "taxName": "TN CITY TAX",
            "rateType": "General",
            "taxable": 93.6,
            "rate": 0.005,
            "tax": 0.46,
            "taxCalculated": 0.46,
            "nonTaxable": 0,
            "exemption": 0
        },
        {
            "country": "US",
            "region": "IL",
            "jurisType": "Special",
            "jurisCode": "AQOF",
            "jurisName": "REGIONAL TRANSPORT. AUTHORITY (RTA)",
            "taxAuthorityType": 45,
            "stateAssignedNo": "016-0001-1 CHICAGO",
            "taxType": "Sales",
            "taxSubType": "S",
            "taxName": "IL SPECIAL TAX",
            "rateType": "General",
            "taxable": 0,
            "rate": 0.01,
            "tax": 0,
            "taxCalculated": 0,
            "nonTaxable": 71.6,
            "exemption": 0
        }
    ]
}
